300;i-2BFF3F02;1;472
900;i-ADC2465C;2;707
1200;i-41C93F29;2;500
1200;i-796244E3;1;283
1500;i-AEA14226;4;631
2700;i-BE563F1A;2;682
3000;i-8BAF4413;2;499
3000;i-1D5646FD;4;203
3000;i-B9184208;1;241
3300;i-E0A63BDD;4;1905
3300;i-74F842C4;4;10677
3300;i-53FF4310;4;1732
3300;i-956A3CDB;4;1732
3300;i-B3B2408C;4;1739
3300;i-F0834357;4;1732
3300;i-FE144161;4;1732
3300;i-486140F1;4;1738
3300;i-CDCA4589;4;1738
3600;i-F5D44252;4;719
4500;i-D1EA44ED;2;801
4800;i-38CA4055;2;595
4800;i-6A01454E;2;1117
4800;i-3447420E;1;210
6300;i-7EBF44E7;2;740
6600;i-0D943F1D;2;437
6600;i-3E704225;2;1058
6600;i-59673D29;1;636
6600;i-A3994159;1;221
7800;i-53214187;2;645
8400;i-DD84430B;2;411
8400;i-367C4239;2;1058
8400;i-BED34065;1;253
8700;i-CA7A42D9;4;535
9600;i-3F7B4345;2;683
10200;i-9343446A;2;456
10200;i-9FA13D05;2;1058
10200;i-AB963FAD;1;231
10800;i-6B07448B;4;726
11400;i-522A3F8C;2;646
12000;i-47ED48A6;2;454
12000;i-1A49423C;2;1058
12000;i-EB9141F7;1;241
13200;i-2F194442;2;913
13800;i-D84D3F5B;2;418
13800;i-27EA462D;2;1118
13800;i-DFB943C8;1;274
14100;i-2780428C;4;2378
14700;i-1DCF40C2;1;2577
15000;i-DE35477C;2;730
15600;i-B526450F;2;463
15600;i-FFBC417D;2;1117
15600;i-A1E445B5;1;242
15900;i-132D41F2;4;633
16500;i-9DAE44F5;4;870
17100;i-A6364397;2;736
17100;i-3C754083;1;1426
17400;i-1ABF41CE;2;488
17400;i-5B644268;4;713
17400;i-91F241F8;2;1058
17400;i-6D7B4719;1;230
18000;i-81364818;4;769
18000;i-396F4172;4;491
18600;i-03244683;2;784
18900;i-7CA34122;1;514
18900;i-484A4694;4;478
19200;i-A1073E81;2;490
19200;i-E0A63F0C;4;28379
19200;i-0A2D4082;2;1117
19200;i-014044CB;1;264
19200;i-EC7442E2;4;28266
19200;i-A0DB45E2;4;7296
19200;i-51C73E6E;1;1061
20400;i-94E541AF;1;5732
20400;i-2F7D43CA;2;745
21000;i-80B03E94;2;472
21000;i-912B3FAC;2;1118
21000;i-54F140A5;1;180
22200;i-22F24034;2;780
22800;i-7E694173;2;671
22800;i-465941F8;2;1118
22800;i-648A423A;1;100
23100;i-388C3E18;4;537
24000;i-43F8431D;2;538
24600;i-94EA4117;2;378
24600;i-2E87448C;2;1119
24600;i-209E424E;1;212
25200;i-EB2846EF;4;620
26100;i-CCE74648;2;693
26400;i-588A404F;2;478
26400;i-D30A3C7A;1;1743
26400;i-107E4039;1;1715
26400;i-78AE3F63;2;2798
26400;i-C1963E13;1;1705
26400;i-29524322;1;100
27900;i-30EE424E;2;650
28200;i-485B43F8;2;550
28200;i-23CA477D;1;202
29700;i-32CE4317;2;527
30000;i-B28F44D9;2;527
30000;i-7C41409C;2;1118
30000;i-9F5040A5;1;100
30300;i-6870480A;4;566
30900;i-7373462A;2;2085
31200;i-98B743C2;2;803
31800;i-C07A4612;2;534
31800;i-C32F4391;2;1058
31800;i-F0FC3FBC;1;282
32400;i-8E0D435B;4;544
32700;i-A9C3412F;2;556
33000;i-E4B641BB;1;3010
33300;i-701F428C;2;796
33300;i-BE2542EC;2;520
33600;i-F382429A;2;2745
33600;i-9A8E40C4;1;263
35100;i-8CC93DAD;2;883
35400;i-E6773CAE;2;510
35400;i-C4E14192;1;212
36000;i-1DCA403E;1;568
36600;i-01FD416C;1;184
36600;i-191B4349;2;618
36900;i-C3334504;1;124370
37200;i-735A3F63;2;521
37200;i-4F83430E;2;1093
37200;i-5F4E4095;1;294
37800;i-C8FB4252;4;612
38400;i-11C740F6;2;623
39000;i-206D46E6;2;547
39000;i-D1EE3F6B;2;1094
39000;i-D65A429D;1;212
39600;i-F76944AC;4;756
40200;i-310C40BA;1;456
40200;i-B4E73D6D;1;456
40200;i-6B6C4334;2;928
40800;i-E34641DC;2;430
40800;i-7D06415D;2;1092
40800;i-A7C14ADB;1;241
42300;i-E3514214;2;572
42300;i-241B4562;1;482
42600;i-C16A4095;2;544
42600;i-B534408A;2;1093
42600;i-819541FC;1;232
43800;i-D7B440FB;2;837
44400;i-8EC04485;2;528
44400;i-982642A6;2;1093
44400;i-8C804577;1;270
44700;i-AA644167;4;504
45600;i-79DD41CB;2;638
46200;i-04013DE1;2;455
46200;i-9C9B3EE6;2;1153
46200;i-7E30486B;1;284
46800;i-E3A74340;4;851
47700;i-66834276;2;791
48000;i-935D4314;2;566
48000;i-C4EC40C7;2;1213
48000;i-D5E74273;1;181
49200;i-A9503D21;2;618
49800;i-D28A432E;2;533
49800;i-8A2140A5;2;1094
49800;i-34CA452F;1;222
50100;i-5F5043FC;1;304
50100;i-28E54001;1;825
50100;i-D45245E6;1;243
50100;i-11474611;1;320
50100;i-16C44249;1;244
50100;i-20204222;1;829
50100;i-33A44279;1;828
50100;i-3BF0418E;1;250
50100;i-702F4252;1;822
50100;i-990842FE;1;822
50100;i-B12744BA;1;822
50100;i-D9973DB7;1;822
50100;i-F53045CB;1;1864
50100;i-FAAF451B;1;247
50100;i-7F654176;1;1848
50400;i-2E004080;1;673
50400;i-2A624828;1;668
50400;i-E7284134;1;551
50400;i-234E46AC;1;550
50400;i-801E3F50;1;547
50400;i-AC403FE9;1;544
50400;i-864043AF;1;490
50400;i-0043445E;1;477
51300;i-115E418D;2;629
51300;i-703A42EA;1;666681
51600;i-A7EE3B68;2;518
51600;i-46E33FE6;2;19033
51600;i-11ED44BD;1;212
51900;i-E0A34048;4;653
52500;i-FC15444E;4;5697
52800;i-8F684263;1;539
52800;i-264B4310;1;527
52800;i-1AFD42BA;1;340
52800;i-1D66435E;1;771
52800;i-4C7E42D0;1;370
52800;i-8C093EEE;1;563
52800;i-95DE4636;1;381
52800;i-AB563E92;1;314
52800;i-B031402F;1;532
52800;i-FA82467E;1;300
52800;i-FBC845DC;1;532
52800;i-06EC4371;1;283
52800;i-711A448D;1;531
52800;i-F02D42D2;1;61085
52800;i-FA3943BA;1;315
52800;i-316644BA;2;627
53100;i-03B343F5;1;370
53100;i-60B745B1;1;301
53100;i-75AA4333;1;353
53100;i-FFEC3F86;1;412
53100;i-C2B13DE9;1;287
53100;i-CB224059;1;275
53100;i-8C054386;1;280
53100;i-B74640CF;1;293
53100;i-A9ED4582;2;507
53400;i-854F450D;1;284
53700;i-12EC4301;1;355
53700;i-197D4269;1;807
53700;i-51E849E9;1;807
53700;i-9BDE4564;1;807
53700;i-C3A63EA9;1;807
53700;i-E59F3C0C;1;807
53700;i-EC7042A6;1;531
53700;i-75EE44F6;1;806
53700;i-AED14172;1;805
53700;i-E3973A6B;1;867
53700;i-9AC54392;1;805
53700;i-131040CC;1;803
53700;i-1F3541AD;1;803
53700;i-35E63CE0;1;802
53700;i-A9763F45;1;60140
54000;i-42F83D5A;1;639
54000;i-F4124824;4;738
54000;i-0E3A431B;1;418
54300;i-281C414D;1;397
54600;i-201644AD;1;1005
54600;i-4C384233;1;1003
54600;i-89283FC0;1;1003
54600;i-896B4258;1;1004
54600;i-8B5A3F6C;1;1005
54600;i-8D8E43AA;1;1002
54600;i-902E4686;1;1004
54600;i-A19F40B8;1;1003
54600;i-BC9642FE;1;1004
54600;i-CEB13F0B;1;1003
54600;i-E4D241AB;1;1003
54600;i-3B2540B1;1;1001
54600;i-4C124763;1;1003
54600;i-72D342D1;1;1001
54600;i-F19E4199;1;998
54900;i-FC6B4812;2;785
54900;i-675D4382;2;517
55200;i-594F41B6;1;234
56100;i-BD71467E;4;24583
56100;i-94D844C8;4;29165
56100;i-D3C03E87;4;29165
56100;i-A9B749CE;4;285326
56100;i-C62D409A;4;29157
56100;i-0ECD4176;4;29130
56100;i-967B42EC;4;101865
56400;i-078042F0;4;171206
56400;i-C83A42EC;4;24211
56400;i-83DE454F;4;28847
56400;i-B88A4796;4;28836
56400;i-E6353F7D;4;28847
56400;i-530E3EEA;4;285040
56400;i-D17E3EBA;4;101693
56400;i-49A442AF;4;1545
56400;i-859044CB;4;28817
56400;i-91D24037;4;28817
56400;i-E56D41F4;4;146055
56400;i-FC76403E;4;24147
56400;i-9DB44A39;4;28807
56400;i-B7DB3EA3;4;28789
56400;i-3E953F55;2;791
56700;i-9A4C45E1;4;2116
56700;i-AB593C8E;4;24169
56700;i-62084310;4;2114
56700;i-D6413D98;4;146095
56700;i-A7B84600;4;284892
56700;i-E8A03FC8;4;1950
57000;i-5D224356;2;518
57000;i-BC644506;1;221
58200;i-8B203DF5;4;1517
58200;i-009A410A;2;784
58500;i-084E4208;2;1485300
58800;i-B8C743CF;2;585
58800;i-501A4356;1;221
59100;i-00AF401D;4;21567
59100;i-455D3FB0;4;26244
59100;i-A80E40E4;4;26237
59100;i-CC7D3CEE;4;26237
59100;i-1C744115;4;581
60000;i-707440AA;2;796
60600;i-F85C47EE;2;442
60600;i-82224087;1;221
61200;i-E78447F2;4;598
61800;i-B55E40CA;2;801
62400;i-C51043C1;2;531
62400;i-6FC94745;1;284
63300;i-BFF745BE;1;239
63300;i-1EBC4431;1;1480317
63300;i-31D740DA;1;1480315
63300;i-604844AB;1;1480316
63300;i-AE7F3F3D;1;1480315
63900;i-16FB441B;2;690
64200;i-8C464660;2;438
64200;i-6BE343C8;1;295
64500;i-545F3EE2;6;493808
65400;i-362D3D24;2;629
66000;i-E0154203;2;544
66000;i-FA8442BE;1;337
66300;i-94254676;4;675
67200;i-4BF13EE7;2;643
67800;i-4E653C3C;2;458
67800;i-02EC41E9;1;305
67800;i-686A407A;1;46027
68100;i-75F03F14;1;45912
68100;i-E2C542B7;1;311
68100;i-CB0F42D8;1;782
68400;i-9CB841C8;4;539
69000;i-D2C7447D;1;581
69000;i-24374506;2;753
69300;i-0C464155;1;692
69300;i-03CC43A9;1;341
69600;i-08C441C1;2;659
69600;i-365443D1;1;274
69600;i-07F945BF;1;1046
69600;i-25E43F27;1;1045
69600;i-2FFB428B;1;1045
69600;i-51393EB3;1;1047
69600;i-55CC3FA7;1;1047
69600;i-74254041;1;257
69600;i-77DB407B;1;1046
69600;i-8D69440E;1;1045
69600;i-94213DB9;1;1046
69600;i-C77C4337;1;1046
69600;i-CFA742A0;1;1045
69600;i-D6D4431C;1;1045
69600;i-87FF411B;1;1043
69600;i-3DEF41A5;1;44197
69600;i-D76741DE;1;44208
69900;i-DBA84548;1;875
69900;i-D5AF403D;1;871
69900;i-DF2E41EA;1;758
70200;i-63814082;1;61794
70800;i-A60E42A7;4;62812
70800;i-1A033BF5;2;62680
70800;i-80873F85;2;912
71400;i-ED314341;2;549
71400;i-D33F4001;2;973
71400;i-105C4440;1;297
71400;i-B3AD40D2;2;1083
72600;i-A43646E3;2;991
73200;i-39CD43F8;2;531
73200;i-3FCA43D4;2;913
73200;i-30F63CA6;1;316
73200;i-D1484160;2;1620
73500;i-1B954193;4;634
74700;i-8B3C40D8;2;727
75000;i-987D43FC;2;586
75300;i-F33C40CD;6;74439
75300;i-028D3E90;6;74200
75600;i-F43340EA;4;670
75900;i-03F74523;6;2022
76200;i-31514658;6;1670
76200;i-FCC3433D;2;637
76800;i-56924355;2;616
76800;i-5A7C46C4;6;72956
78000;i-3E2C3D66;6;125
78000;i-AF594489;2;484
78300;i-449244D3;6;143
78600;i-88174550;2;247
78600;i-EA60451F;6;70920
79200;i-8AE540BF;6;70551
79500;i-4E5A4166;6;4872
79800;i-93B7408D;6;69782
79800;i-AF604579;6;4669
80100;i-D8094350;2;491
80400;i-90634804;2;696
80700;i-798E3F4A;6;169
80700;i-7513431D;4;530
81300;i-E65746C4;4;679
81300;i-007B4208;4;4158
81300;i-043B3DC9;4;146569
81300;i-2D4E4167;4;260325
81300;i-2FC941E1;4;130377
81300;i-4BD23DBC;4;805
81300;i-506546B5;4;260303
81300;i-98B93FD0;4;130412
81300;i-E15F3F68;4;794
81300;i-AE3D447B;4;146558
81900;i-95624038;2;756
82200;i-BBAA3F40;2;540
82800;i-F23243CD;4;685
83100;i-550740AE;4;119633
83100;i-63A93F61;4;2347
83100;i-7FE546D2;4;1006
83400;i-0E254480;2;524
84000;i-1D514600;2;637
84300;i-8A1941FB;4;257326
85200;i-52E1405F;2;643
85800;i-326A4167;2;646
86100;i-CA5D4045;4;72142
86100;i-1AAB4560;4;116741
86100;i-3B0640AB;4;72053
86100;i-5916404A;4;146
86100;i-61ED4154;4;125621
86100;i-4C693EFA;4;255539
86100;i-B4804421;4;642
86100;i-C0F245D0;4;116619
86100;i-7AD240CE;4;116704
86100;i-A5CA3D9D;4;122
86100;i-A7934173;4;125676
86100;i-7C8F43B3;4;72096
86100;i-81C54258;4;125649
86100;i-BCA3422C;4;72220
86100;i-2047401A;4;97238
86100;i-369F42CC;4;72217
86100;i-6B813D99;4;72032
86100;i-CCCF406C;4;116610
86100;i-21783D47;4;125601
86100;i-569544C5;4;255493
86100;i-32294374;4;72228
86100;i-37FD3FD5;4;72020
86100;i-9E684461;4;116421
86100;i-09834489;4;116497
86100;i-ADB63F7E;4;72116
86100;i-268B3D9C;4;97210
87300;i-603C4230;2;718
87300;i-74AD4544;4;70931
87300;i-76F5463D;4;140480
87300;i-937A4412;4;115442
87600;i-D6B2429F;2;529
87900;i-75E6401B;4;647
89100;i-2D1440D8;2;619
89400;i-80B947CD;2;658
89400;i-DA2C4449;2;1576562
90300;i-42DE4233;4;786
90600;i-803B3F2D;2;676
91200;i-DB2942F0;2;655
92400;i-0F0D42F0;2;533
93000;i-3FB641CA;2;551
94500;i-E9EA4215;2;617
94800;i-4F3440C1;2;566
95100;i-DB944521;4;525
96000;i-DE6740D5;2;821
96600;i-18233C7B;2;712
97200;i-EC47453B;4;548
97800;i-824A41E1;2;775
98400;i-360E43C5;2;649
99900;i-9DFB4096;2;599
100200;i-094640F0;2;713
101400;i-953B423F;2;781
102000;i-E26A4351;2;703
102300;i-4CE34140;4;574
103500;i-740641A3;2;792
103800;i-B71B4286;2;644
104400;i-54D33F24;4;574
105300;i-E6FF41B1;2;775
105600;i-EE4B40D0;2;661
107400;i-643C43B0;2;691
108600;i-C0E83EE8;2;634
109200;i-E77A4722;2;565
109500;i-5CE03E42;4;637
110400;i-C4743FB9;2;534
111000;i-A08A4265;2;584
111600;i-899042C8;4;1144
112500;i-05EE4310;2;847
112500;i-0461418D;1;1389
112500;i-12D447EE;1;1386
112500;i-1F6D41F9;1;1171998
112500;i-2341440A;1;1382
112500;i-3C874648;1;1397
112500;i-414A4998;1;1382
112500;i-544F4146;1;123
112500;i-590D4132;1;1382
112500;i-60F94384;1;1389
112500;i-80AB4116;1;145
112500;i-90AE4587;1;1397
112500;i-93E03F80;1;1378
112500;i-9D3144AD;1;1382
112500;i-BD4D42EB;1;1385
112500;i-C6484678;1;1356
112500;i-C9B846C6;1;1386
112500;i-CB184144;4;21735
112500;i-CFED4293;1;1358
112500;i-EA494060;1;1356
112500;i-EE8A4860;1;607073
112500;i-EF3F446A;1;146
112500;i-F7F8430C;1;1386
112500;i-218B42D4;1;1377
112500;i-3843472A;1;1357
112500;i-5F074387;1;1396
112500;i-73E33E7D;1;1374
112500;i-87654707;1;1356
112500;i-87FB3F14;1;90
112500;i-95364207;1;1381
112500;i-98EF3D7D;1;22
112500;i-CB3247DC;1;134
112500;i-CFBF40DD;1;1385
112500;i-DEC74429;1;1355
112500;i-F1B04144;1;1374
112500;i-7EE64336;1;1381
112500;i-973744D8;1;1349
112500;i-C0D3421F;1;133
112500;i-F7E24055;4;80522
112500;i-A5264398;1;1361
112500;i-AED94470;1;1376
112500;i-CCD23F66;1;1332
112500;i-6F933EC6;1;1328
112500;i-C74D3DC5;1;1339
112500;i-D84D42C2;1;1310
112500;i-F3DE4572;1;1331
112500;i-48FD4512;1;1336
112500;i-8A414344;1;1269
112800;i-58C042D2;2;666
112800;i-B00B451C;1;1225
112800;i-76124142;1;1195
112800;i-E19241A8;1;1188
112800;i-FD4742A5;1;1188
112800;i-89EF3D89;1;1214
112800;i-A3544124;1;1183
112800;i-697043C4;1;1054
112800;i-32A140ED;1;1202
112800;i-B4DF49D3;1;1169
112800;i-5CF43E87;1;1191
112800;i-B8EA416D;1;1153
112800;i-3BC23FA4;1;1192
112800;i-984A417F;2;974
112800;i-B3C1431F;1;258
113700;i-DF9943B9;2;934
114000;i-1EF54139;1;116
114000;i-EFC44135;1;334
114000;i-E2E542AF;2;925
114600;i-2E4C43AE;2;745
114600;i-7E8C400F;1;228
114900;i-6FEB4473;2;984
115200;i-3B2A3FB8;1;604287
115800;i-2AB93FA3;2;994
116100;i-487444DA;2;773
116400;i-8F3244EA;2;619
116400;i-9AD24209;1;822571
116400;i-547942AF;1;279
116700;i-5CE2491D;2;954
116700;i-6CF943E6;4;523
117300;i-76C34248;2;135
117600;i-3BCA3EBA;1;147
117600;i-5576475A;2;1014
117600;i-6A48429A;2;922
117900;i-E33F40B6;2;325
118200;i-924E4508;2;729
118200;i-B6F84325;1;218
118500;i-190B3F30;1;15467
118500;i-C5D0404F;1;15465
118800;i-1A2941F9;1;15343
118800;i-10BF4196;1;15306
118800;i-4B4E42EE;2;1064
118800;i-AD1943D4;1;15219
118800;i-5252406A;1;15143
118800;i-D29F4221;1;15103
118800;i-258B42C7;4;874
119100;i-183A44FD;1;14980
119100;i-5A4E409C;1;14976
119100;i-196441B9;1;14799
119400;i-1B1F4727;2;531
119700;i-ECE941FC;2;944
120000;i-995944F3;2;636
120000;i-C1794333;1;118
120300;i-B6B9440A;1;13683
120300;i-0A894A5A;1;13641
120300;i-D25743BA;1;13577
120600;i-900943E6;1;13522
120600;i-993C42C5;1;88
120600;i-D12C45C7;1;13463
120600;i-F387410F;1;13357
120600;i-31053F7B;1;13261
120600;i-18D3414B;2;1014
120900;i-4EEF4228;1;13160
120900;i-FD144343;1;13063
120900;i-067B3F3C;1;12962
121200;i-E4813E9D;2;535
121800;i-823E3CD0;2;749
121800;i-3C784349;2;1013
121800;i-7F34435E;1;158
122100;i-04634278;1;816
122100;i-1998443A;1;816
122100;i-31CF3D5A;1;816
122100;i-609240E1;1;816
122100;i-68FB3E63;1;816
122100;i-B89D3E84;1;816
122100;i-BFBE4225;1;816
122100;i-CC4541C0;1;816
122100;i-D3404334;1;816
122100;i-D69645F2;1;816
122400;i-9BCC408B;1;126
122400;i-8D6C3E64;1;262
122700;i-43AA43F0;2;1014
122700;i-2C3A3C06;1;188
123000;i-53C246DE;2;529
123600;i-B86039FA;2;748
123600;i-4CA6441C;1;118
123900;i-ACB5433F;2;1014
123900;i-E49B4323;4;496
124800;i-1DB93CC1;2;945
124800;i-DED04537;1;73
124800;i-946A4198;2;523
125100;i-938B4128;1;93
125100;i-861C41C9;2;730
125400;i-72F3420C;1;119
125700;i-04A047B5;2;955
126000;i-E3F64447;4;610
126300;i-0B114240;1;1267
126600;i-EE363F65;2;1015
126600;i-8299417C;2;524
126900;i-74E54226;2;607
127200;i-CDCC3FCB;1;118
127200;i-9F883F6E;1;397
127800;i-01594404;1;1415998
127800;i-E34B3FB4;2;1015
128400;i-42853EEA;1;61
128400;i-487740B4;2;536
128700;i-EE983F31;2;954
129000;i-5C2645E2;2;748
129000;i-4811094D;1;1059
129000;i-735E4444;1;118
129600;i-47F344FC;2;1016
130200;i-47B444FC;2;527
130800;i-5FA74408;2;679
130800;i-48E9434E;2;1014
130800;i-CA1444E2;1;118
131100;i-7F1F40C3;4;515
131700;i-2B254337;2;1013
132000;i-8194440C;1;379
132000;i-D58B411A;2;935
132300;i-49F207B6;1;5828
132300;i-310005BF;1;5806
132300;i-3CD1084F;1;5806
132300;i-3FC3072C;1;5806
132300;i-44760829;1;5806
132300;i-47CB0883;1;5806
132300;i-52AF08F8;1;5807
132300;i-55E109F1;1;5807
132300;i-4DC408FF;1;5807
132300;i-538A0978;1;5799
132300;i-9D1B3F27;2;742
132600;i-2FFA452B;1;9275
132600;i-87764B0A;1;119
132900;i-395142A9;2;1014
133200;i-13D93E80;4;520
133500;i-74B64403;6;108
133800;i-A65C4298;4;1805
133800;i-47444496;2;1014
134100;i-94183D86;2;524
134100;i-F94045E3;2;713
134400;i-4C6B40E2;1;159
134700;i-52EF445D;2;954
135600;i-6F3740CE;2;1214
135900;i-75F74216;2;1014
136200;i-63F748F5;2;674
136200;i-C2FF3E97;1;159
136800;i-0E81410A;2;1014
137400;i-D4884912;2;532
137700;i-CB114240;2;1014
138000;i-3BF7419C;2;752
138000;i-CC7244B3;1;118
138300;i-E7854386;4;497
138900;i-227843C4;2;1014
138900;i-20953F19;4;4905
139200;i-9B0D3D4E;1;11233
139500;i-B3D4470E;2;526
139800;i-4C4E4064;2;639
139800;i-77A043A6;1;118
139800;i-0ABF406E;2;954
140400;i-CEBC471A;4;760
140700;i-E1964677;2;1014
141000;i-39094670;2;535
141600;i-73A640AE;2;737
141600;i-2AEC45EC;1;118
141900;i-2AF54251;2;954
142200;i-413E07EA;1;480
142200;i-4339080A;1;480
142200;i-5D780AE6;1;467
142200;i-251904E8;1;452
142200;i-40F1081F;1;452
142200;i-42D607E1;1;452
142500;i-4DAC0839;1;254
142500;i-3D970701;1;246
142500;i-441807EE;1;256
142500;i-3F9D07AE;1;239
142500;i-36B40618;1;238
142500;i-43BD0804;1;238
142800;i-38A843EF;2;954
142800;i-B3C84287;2;923
143100;i-47D108B4;1;401
143400;i-2930402F;2;807
143400;i-0B494277;1;118
143700;i-290D44EF;2;954
144000;i-B49F43F9;4;2718
144600;i-B22944EE;2;954
144600;i-C0F24687;2;535
145200;i-6C13415F;2;882
145200;i-7F654174;1;119
145500;i-42B440C8;4;495
145800;i-FE444073;2;1014
146400;i-98993DA3;2;535
146700;i-9AFA42E1;2;1014
147000;i-33EC427C;2;562
147000;i-C2524335;1;118
147600;i-49594212;4;781
147600;i-51EA457F;2;954
148200;i-341B3FAA;2;1222
148500;i-B57241E9;1;1987
148800;i-91E93D37;2;792
148800;i-30A24230;2;954
148800;i-B9924136;1;119
149700;i-0939425D;2;1014
150000;i-EA5D3FEC;2;531
150600;i-4DD1408E;2;844
150600;i-94CB42B4;1;3111
150600;i-662B3D06;1;118
150600;i-BF3F442F;2;1014
150600;i-46B10871;1;894
150600;i-53850A24;1;901
150600;i-41D406F5;1;886
150600;i-474207D4;1;886
151800;i-D46744C9;2;1014
151800;i-74E542C4;6;516808
152100;i-9DD74208;2;525
152100;i-3031067B;1;411
152100;i-4AD908C4;1;394
152100;i-5B8F09B7;1;394
152400;i-87544054;2;564
152400;i-1A3F41CF;1;119
152400;i-1FA63D5B;1;1251
152700;i-33D04024;2;954
152700;i-3BBB4577;4;494
153600;i-A0564575;2;954
153600;i-B50F4222;1;983
153900;i-7DFB46E0;2;525
154200;i-CC18419B;2;566
154200;i-D3AF463F;1;119
154500;i-925A41D6;2;954
154800;i-56B746A7;1;237503
154800;i-6E57438C;4;647
155700;i-A16841B4;2;530
155700;i-D9374348;2;953
156000;i-56874116;2;843
156000;i-21E94011;1;118
156600;i-6E643E88;2;954
156900;i-A4933FC1;6;453
157200;i-CD7D444C;2;540
157500;i-6E523DF0;2;1014
157800;i-FDAE3EC5;2;706
157800;i-333442CD;1;119
158100;i-986A41C5;4;44230
158100;i-2341426C;4;24972
158100;i-2A2E4966;4;44257
158100;i-375941D7;4;44344
158100;i-F95141FD;4;53473
158100;i-3CE142B1;4;53483
158100;i-E2593E82;4;59163
158100;i-F0C34060;4;183245
158400;i-77EA4103;4;44250
158400;i-B4453F70;4;44277
158400;i-6C204158;4;674
158400;i-FC37428B;4;183245
158400;i-F90F462A;4;44201
158400;i-A06E4518;4;183208
158400;i-3C3E4246;2;1004
158700;i-50AE46FB;4;43848
158700;i-E66E453A;4;182907
159000;i-4D0044A6;2;535
159300;i-E19A40EE;2;563
159600;i-6F10424C;2;1014
159600;i-F564434B;1;118
159900;i-B7224128;4;42619
159900;i-598441F6;4;494
160500;i-A7EA4DBD;2;745
160800;i-4E7A4499;2;526
161400;i-97CE40F8;2;664
162000;i-EB8D4770;4;579
162900;i-6F5B4695;2;497
163200;i-80B0420E;2;643
164700;i-6084402C;2;1358
165000;i-1E8340C3;2;880
166200;i-19DD3EFF;2;536
166500;i-CED93B38;2;642
167100;i-CDB0444C;4;533
168000;i-FC8742FC;2;843
168600;i-759A47CF;2;607
169200;i-395A3F75;4;544
169800;i-613D4356;2;540
170400;i-A92341F0;2;600
171300;i-74C53CB9;6;414401
171600;i-B1E0401F;2;532
172200;i-45C03E46;2;654
173400;i-AF433EB2;2;532
173700;i-2E9D3F61;2;671
174300;i-88604410;4;709
175200;i-73AA4247;2;533
175800;i-D7903BB7;2;551
176400;i-B6343BC8;4;643
176700;i-040C4417;6;409158
177000;i-2E554342;2;531
177600;i-47B94101;2;853
178800;i-CDB13D87;2;535
179400;i-27483FB8;2;708
180600;i-D99146AD;2;534
180900;i-B8CF3CFE;2;875
181500;i-94184067;4;489
182700;i-375C4373;2;1066
183000;i-36764238;2;642
183600;i-E4BC4546;4;514
183900;i-32E43CF9;4;157718
183900;i-5E024329;4;157726
183900;i-E9FF4115;4;18892
183900;i-B1383FC4;2;1439
184200;i-E1453FC6;2;531
184800;i-C64843BA;2;493
185700;i-DB75417B;2;609
186000;i-CC7F458E;2;534
186300;i-34874120;2;846
186600;i-83414277;2;731
187200;i-C1364197;2;1761
187800;i-1203425B;2;534
188400;i-4A0D426D;2;720
188700;i-6F80428D;4;497
189000;i-179C445B;2;606
189600;i-935E3FE6;2;685
189900;i-B37C4155;2;529
190200;i-700E4393;2;754
190200;i-8366436A;2;5308
190800;i-E52A3E50;4;569
191400;i-52614725;2;535
192000;i-418A40DE;2;671
193200;i-164740E0;1;11120
193200;i-22C83AB7;2;35
193200;i-4C623F39;4;27240
193200;i-F7903F48;4;323
193200;i-71DB446D;4;27241
193200;i-14574014;1;2502
193200;i-6829426D;1;2502
193200;i-D7B43FD8;1;2502
193200;i-1F514202;1;2500
193200;i-57A640A3;1;2499
193200;i-8F783DCB;1;2498
193200;i-38803C80;1;54635
193200;i-4B5B41DE;1;2498
193200;i-6ABB4529;1;2497
193200;i-89FD43BF;1;2498
193200;i-B6CD4029;1;2497
193200;i-B9803EA4;1;2498
193200;i-D4274174;1;54635
193200;i-ECB6436C;1;2497
193200;i-F7DD3E2E;1;2498
193200;i-438C404D;1;2356
193200;i-6A254062;1;2347
193200;i-E7D63F27;2;1001
193500;i-734943BC;2;611
193800;i-74B542C7;1;291
193800;i-6C8C3FAD;2;1154
195000;i-625D3AD5;2;535
195600;i-07274117;2;595
195600;i-9A7B42B5;2;2787
195600;i-B067444F;1;228
195600;i-47054308;2;1035
195900;i-31D842DE;4;493
197100;i-BC5B42DB;2;524
197400;i-966A45D0;2;708
197400;i-4A584422;1;46
197400;i-4CC94213;2;1097
198000;i-719941D9;4;574
198300;i-A0613FC5;2;1650
198900;i-2D7D43F8;2;528
199200;i-FA894102;2;588
199200;i-E70645B6;1;197
199200;i-D6F543F5;2;1094
199800;i-F1224474;2;1781
200700;i-73973E73;2;498
201000;i-D3773F4B;2;628
201000;i-981A4616;1;315
201000;i-B6E63F80;1;197
201000;i-C6344051;2;1035
201300;i-B01041FC;1;1273
201600;i-C8624148;2;5205
202500;i-38074A90;2;496
202800;i-66C94101;2;522
202800;i-6C164166;1;168
202800;i-192340DD;1;198
202800;i-ADCD47C6;2;1035
202800;i-57943EC1;1;138
202800;i-1E54428A;1;68
203100;i-3EC242D8;4;489
203100;i-3F73440D;1;164
203400;i-C12143F5;1;71
203400;i-518C4343;1;124
203700;i-03AA429F;4;8139
203700;i-07924604;4;137927
203700;i-19EF4548;4;7906
203700;i-5E853EB9;4;7961
203700;i-D8ED3F5B;1;47
203700;i-0DF04455;4;7927
203700;i-1EEE44AD;4;8094
203700;i-DE18441E;4;137919
203700;i-04503E13;4;137908
203700;i-0F9C44B4;4;7869
203700;i-4F334683;4;8065
203700;i-673C46D8;4;8168
203700;i-9EA83C55;4;137911
203700;i-3DBF3E09;4;7879
203700;i-78A34577;4;8083
203700;i-E40F4487;4;1196
203700;i-D7B3458E;4;8158
203700;i-0BB13F14;4;7886
203700;i-93F543B7;4;7785
203700;i-0DFA411D;4;7767
204000;i-32F542D5;1;161
204000;i-0D3B3FA4;1;65
204000;i-62D5434A;2;532
204600;i-D52F43B4;2;746
204600;i-BF7241B6;1;208
204600;i-2DF73E69;2;1154
205200;i-91384191;4;601
205500;i-7C734433;4;6039
206100;i-01DD432B;2;525
206100;i-18F3408A;2;738
206400;i-BF3643BA;1;218
206400;i-7CD246B5;2;1034
207000;i-5D363C47;2;1289
207300;i-E73E40BF;1;95
207300;i-71323F7C;2;21390
207600;i-134A42E6;2;537
207900;i-AC613E9C;1;263
207900;i-FD6D4191;2;624
208200;i-419243B5;2;166532
208200;i-738C4057;1;196
208200;i-F1C645EF;2;1094
208200;i-B15E4922;1;9092
208500;i-DA4E459B;1;9529
208500;i-54BD4646;2;23248
208800;i-29AF3FA4;2;23017
209400;i-DBEA4137;2;524
209700;i-398D4573;2;591
210000;i-59F744A1;1;249
210000;i-8FEB4582;2;1154
210300;i-AE244095;4;506
211200;i-AA1B3F1A;2;526
211800;i-89534080;2;822
211800;i-5DE6456A;4;15956
211800;i-63EC3E47;4;129713
211800;i-825F4313;4;129732
211800;i-878345DE;4;15880
211800;i-8B064168;4;129743
211800;i-2061447C;4;129735
211800;i-98B53EEB;4;129735
211800;i-86153F9E;4;129705
211800;i-0782494F;4;129724
211800;i-FA853F82;4;129713
211800;i-55FC456B;4;129712
211800;i-26C3449C;4;129696
211800;i-4ED843D7;1;218
211800;i-E9CE4689;2;1094
211800;i-189142AC;4;129686
211800;i-811E41CE;4;129685
211800;i-BB8F42C6;4;129675
211800;i-6C423E91;4;15890
211800;i-6E1F41BF;4;129685
211800;i-998B42E6;4;15852
212400;i-02854330;4;536
212700;i-152B3A94;4;128930
212700;i-6A594446;4;128923
212700;i-839D4315;4;128893
212700;i-F39A4457;4;15024
212700;i-5D8C464B;4;128922
212700;i-521D41CF;4;15023
212700;i-EAE541F1;4;128874
213300;i-782F40AC;2;531
213600;i-554B404A;2;696
213600;i-27D33E8B;1;310
213600;i-446F463C;2;1095
214800;i-C2A640AD;2;538
215400;i-11DC4494;2;829
215400;i-4ADA4177;1;208
215400;i-46FF400B;2;1095
216600;i-B3CA4023;2;525
217200;i-413144D0;2;1361
217200;i-4ADC3EEF;1;198
217200;i-1A6B43F6;2;1094
217500;i-4ADD3E2B;4;506
218100;i-8B2144AF;4;123527
218100;i-1B7344E9;1;142
218100;i-79D94314;1;61
218400;i-7E864469;1;238
218400;i-6F753D1D;1;102
218400;i-4F1C3F9E;2;535
219000;i-ACA34485;2;821
219000;i-DFF5435F;1;227
219000;i-BF35409D;2;1094
219600;i-67DD458A;4;544
220200;i-D80D42D3;2;522
220800;i-7EB04368;2;497
220800;i-0E524290;1;197
220800;i-486641B5;2;1215
222000;i-376E4333;2;920
222600;i-B9DC4079;2;708
222600;i-6BB344BD;1;196
222600;i-DD424557;2;1094
223800;i-86454411;2;536
224400;i-9DA544B2;2;784
224400;i-7A6E43CF;2;23328
224400;i-AF124161;1;309
224700;i-93DF44DC;4;487
225300;i-7E094191;4;3435
225600;i-2DF5428B;2;535
226200;i-EE533F76;2;496
226200;i-6E974091;1;198
226800;i-405A3FCA;2;1316812
226800;i-E16E42D1;2;1316812
226800;i-A0363C54;4;475
227100;i-8D8346E4;2;1530
227100;i-46744192;2;1525
227400;i-DC074028;2;536
227700;i-A38D49F1;4;586
227700;i-31FA4245;4;113745
227700;i-E5A942E3;4;113749
227700;i-290341F0;4;113689
227700;i-79A63BD2;2;874
228000;i-CE6940E7;1;238
228300;i-8CAA3F63;4;113334
228300;i-E3AE4236;4;113334
228300;i-EC2B419F;4;113308
228300;i-04C0472B;4;113327
228300;i-628B4196;4;113327
228300;i-3ED43F97;4;113309
228900;i-CFC94456;4;112725
229200;i-72203DD3;2;2567
229200;i-02FA4466;2;2479
229200;i-3C764913;2;536
229800;i-50F74614;2;534
229800;i-44DE421E;1;248
231000;i-DCE84005;2;535
231600;i-B85642B4;2;497
231600;i-78B343B2;1;238
232200;i-9F1E3B27;1;41213
233100;i-FB754650;2;539
233400;i-03454251;1;249
234000;i-71EC4548;4;517
235200;i-28193E45;2;498
235200;i-F1B341F2;1;207
237000;i-70B24218;2;526
237000;i-F6C84196;1;310
237000;i-43423F5B;2;9788
237300;i-DC3B3FAF;2;9635
238200;i-B249420C;2;1265
238800;i-CB203D57;2;525
238800;i-D88742C5;1;207
239100;i-E0004162;4;526
239700;i-294240E5;4;62812
239700;i-3B3F3FFE;4;62812
239700;i-66A3421F;4;62813
239700;i-8F0B41FA;4;62821
239700;i-ACD73EAF;4;62821
239700;i-F3994371;4;62813
239700;i-340B491E;4;62804
239700;i-71CA41CA;4;62804
239700;i-872D3D48;4;62804
239700;i-002C4265;4;62793
239700;i-272444E0;4;62803
239700;i-11364293;4;62803
239700;i-5D553FB8;4;62795
239700;i-79A94764;4;62795
239700;i-81453D48;4;62795
240000;i-B7BA3C80;4;62785
240000;i-C2863FBB;4;62793
240000;i-4ABF4594;4;62786
240000;i-999540F5;4;62778
240000;i-8DDE4280;4;62768
240000;i-DCE846FE;4;62768
240000;i-F2014283;4;62768
240000;i-036A3A2F;4;62759
240000;i-E7CE3E7A;4;62759
240000;i-2B3A45CC;4;62750
240000;i-C9A64075;4;62750
240000;i-439A4091;4;62742
240000;i-9A1A44BE;4;62594
240000;i-95FC3F9A;4;62601
240000;i-602A409A;4;62721
240000;i-FA844095;4;62731
240000;i-275C42C9;4;62730
240000;i-6F4A417C;4;62730
240000;i-27D33AEF;4;62712
240000;i-A6F645DB;4;62720
240000;i-070F3DCD;4;62704
240000;i-9AA44199;4;62704
240000;i-AC9442EF;4;62704
240000;i-69764475;4;62694
240000;i-B459443F;4;62694
240000;i-2FBC3A6E;4;62685
240000;i-AECE43F4;4;62685
240000;i-061B3FDB;4;62676
240000;i-30B040A4;4;62676
240000;i-914640AF;4;62528
240000;i-DC943F51;4;62668
240000;i-F7DF41DF;4;62668
240000;i-0EBB3E26;4;62658
240000;i-9C6B406A;4;62658
240000;i-40A644E6;4;62657
240300;i-277943C0;2;497
240600;i-B3BF436E;2;502
240600;i-B27D441B;1;249
240900;i-D9ED3D04;1;189
241200;i-FC3843BF;1;116
241200;i-85EB46A9;4;747
242100;i-DC114093;2;496
242400;i-DA814267;2;823
242400;i-5CC73F0D;1;227
243900;i-CF283F47;1;3245
244200;i-062F44A2;2;486
244200;i-15EB4422;1;249
245700;i-61734296;2;498
245700;i-0F054400;2;1129
246000;i-640142D4;1;197
246300;i-1CE03FB6;4;478
247500;i-56E340EC;2;506
247800;i-E46D4474;2;536
248400;i-36CA3FA9;4;487
249300;i-AEDA45E7;2;970
249600;i-5CA6448F;2;489
251100;i-D7D04A4D;2;503
251400;i-138B43F8;2;528
252900;i-0F6147E0;2;507
253200;i-DA4142E6;2;1092
254700;i-BA9B4283;2;480
255000;i-9EDA3FC6;2;507
255600;i-C268430B;4;488
256500;i-2C7942E0;2;496
256800;i-E78045C4;2;507
257400;i-79C34164;4;1466
257700;i-73D841FE;4;5886
258000;i-77B34049;2;4427
258300;i-52B93E2D;2;498
258600;i-C00D439A;2;1094
260100;i-16A4419E;2;1084
260100;i-BBD54303;4;5948
260400;i-6ABA491C;2;495
261000;i-05754222;4;465
261900;i-F918430E;2;496
262200;i-CE993EA3;2;498
262800;i-8B243FE8;4;497
263700;i-BD3444FB;2;506
263700;i-6CB63FA0;4;1386
264000;i-6EED43A5;2;496
265500;i-29C748BF;2;495
265800;i-EAF64509;2;530
266100;i-FCCF44AC;4;1356
267300;i-4B8B458F;2;487
267300;i-7BDB3E74;4;1251
267300;i-3F28454C;2;534
267600;i-4AE4434D;4;7336
268200;i-6FA94308;4;469
268500;i-15E043DA;4;5595
269100;i-76BA44E5;2;490
269100;i-8CB03F1D;2;536
270000;i-56894072;4;525
270900;i-13F03F23;2;499
271200;i-C6FD41ED;2;527
272700;i-D5293EB1;2;726
273000;i-E4B74208;2;528
273900;i-50313EEE;1;8358
274500;i-6B7D3E87;2;495
274800;i-ECF64281;2;1348
275100;i-EDF74170;4;505
275400;i-B8BC3E9A;4;3853
275400;i-F97942D4;4;5288
276000;i-91263E3F;2;533
276600;i-A2C04451;2;526
277200;i-44FE3CD0;4;692
277800;i-4CBC3FAE;2;534
278400;i-12343F70;2;825
279300;i-DFE241E9;4;1427
279600;i-D1D13F83;2;533
280200;i-AADF3EB6;2;530
280200;i-01523CA4;1;1940
280500;i-69AE3D12;1;2654
280500;i-823E438F;1;51
280500;i-8B434813;2;837
280500;i-E2583E32;4;26143
280500;i-F87C4638;1;2484
280500;i-FE533FBC;4;26148
281100;i-208B403D;1;1042
281400;i-946041ED;4;3856
281400;i-11804260;2;531
281700;i-828D4701;2;545
282000;i-548C4432;1;187
282000;i-7E9046A0;2;915
282000;i-885745B8;2;954
282300;i-1D6646E8;2;1084
282300;i-248A3FAF;4;500
282900;i-3F7C3ADD;1;543
282900;i-0CE73EBB;1;507
283200;i-05DD42F9;1;2170
283200;i-89B14548;2;1219
283500;i-E172495C;1;1918
283800;i-E8D9441A;2;536
283800;i-9A41437B;1;177
283800;i-934C440E;2;974
283800;i-E7B041E6;2;1004
284100;i-60F1441F;2;1094
284400;i-A2E13D06;4;516
284700;i-507D4023;1;93125
285000;i-20F13BE2;1;92991
285000;i-6F4B4779;1;1258722
285000;i-44094368;2;10690
285300;i-616D4402;2;507
285300;i-5A6045EA;4;5248
285600;i-6D463C5F;2;537
285600;i-FAAE40AE;1;9221
285600;i-093840F5;1;218
285600;i-246E419F;2;914
285600;i-DF3A446C;1;9165
285600;i-66F04346;2;944
285900;i-0F0B446A;2;974
285900;i-9A9B4083;2;954
285900;i-E0A0424F;2;974
285900;i-806C4182;2;1004
286200;i-AFAF3DD3;2;1084
287100;i-C59E462F;2;509
287400;i-8A623D01;2;525
287400;i-190C4550;1;166
287400;i-3D4F4215;2;1095
288900;i-C431419D;2;524
289200;i-A1644619;2;528
289200;i-F9AF431C;1;197
289200;i-75D941B0;2;1154
289500;i-99EA46F2;4;499
290400;i-E258457C;2;1144
290700;i-F7D04327;4;1476
291000;i-13153C38;2;526
291000;i-8FF33C63;1;167
291000;i-48C744AA;2;914
291000;i-56244697;2;944
291300;i-5F823F23;2;974
291300;i-A1C142EC;2;1114
291600;i-5F6642C6;4;518
291900;i-6D52455E;4;1863
292200;i-1B3D42D6;4;1669
292200;i-9AA83C4E;4;1669
292200;i-C3AD4151;4;1669
292200;i-2C7E408C;2;553
292800;i-E7764111;2;1029
292800;i-15CF3F55;2;2714
292800;i-3DFD3C39;1;207
294000;i-ED653FD0;2;553
294300;i-20F44216;2;531
294600;i-8E9B42A8;1;208
294900;i-C2674370;1;144
295200;i-5DF94788;1;61
295500;i-379F40C0;1;171
295500;i-93C543C8;1;73
296100;i-CE9B3CA2;2;517
296400;i-F9EA4251;2;527
296400;i-8E1F43BE;1;197
296400;i-B70343F3;2;1154
296700;i-1F4E4344;1;194
296700;i-FA1F4212;4;517
297000;i-869843C2;1;59
297600;i-8DF83D19;1;418
297600;i-CBC54363;4;1246020
297600;i-27274812;2;546
298200;i-9FF83EA6;2;525
298200;i-0AB7445F;2;1014
298200;i-A40B4445;1;212
298500;i-CD7940C4;2;1044
298800;i-3BD8461F;4;516
299400;i-672641C0;2;1072
300000;i-46E34746;2;531
300000;i-FE9B4572;1;279
300000;i-8B884359;2;1154
301200;i-F5FB3F7A;2;553
301800;i-635A4400;2;528
301800;i-198F47EF;2;1034
301800;i-31AC454B;1;217
303000;i-6A2B41CE;2;534
303600;i-A119424B;2;896
303600;i-8F733F6B;1;227
303600;i-0F913F79;2;1155
303900;i-C4193F5C;4;527
304800;i-8ED33C31;2;929
305100;i-003B436A;4;78292
305100;i-3CD83D9B;4;78292
305100;i-A4633EA1;4;78292
305100;i-C17344BA;4;78292
305100;i-F8D946A7;4;78292
305100;i-44894171;4;78276
305100;i-474142AC;4;78284
305100;i-8583437A;4;12025
305100;i-C0013A4C;4;78284
305100;i-75E94283;4;78276
305400;i-D0D042C0;2;524
305400;i-48363E77;1;238
305400;i-370943BE;2;915
305400;i-48D73FEE;2;1184
306000;i-1FD640FD;4;522
306900;i-E15F436E;2;522
307200;i-6A1D3EA3;2;526
307200;i-D1D7452D;1;238
307200;i-D496471F;2;915
307200;i-927C40B7;2;1434
308400;i-E9BC4212;2;532
309000;i-627C3D95;2;527
309000;i-503C461B;2;1154
309000;i-CE6A44B5;1;247
310500;i-38B640C5;2;499
310800;i-B9E14225;2;519
310800;i-845B3FE5;1;248
310800;i-6E9C43E0;2;915
310800;i-1FD44480;2;954
311100;i-7F4C42D7;2;17484
311100;i-92A940DB;4;503
311700;i-9A2B45A2;4;2974
312300;i-A8524426;2;496
312600;i-17614160;2;526
312600;i-96E044B3;1;227
313200;i-3F593E77;4;1775
313200;i-0FEE4275;4;511
313800;i-964F476F;2;530
314400;i-E7C14185;2;523
314400;i-7140448C;1;238
315300;i-903740B7;4;41524
315900;i-1E72405F;2;903
316200;i-41CA4389;2;526
316200;i-12544004;1;280
316800;i-C3DA3D57;4;146
317100;i-72033DBB;4;66286
317400;i-784340C6;2;529
318000;i-F34642E9;2;533
318000;i-D8DA40ED;1;268
319500;i-524743C8;2;536
319800;i-9D8B41A9;1;227
320400;i-61F33FF1;4;516
321300;i-1F6145CF;2;539
321600;i-CB94484B;1;237
322800;i-FC424029;2;524
323400;i-361D3E09;2;530
323400;i-3B6E3BD7;1;300
324600;i-C52D4122;2;930
325200;i-5DF843CF;2;530
325200;i-1755470F;1;280
325500;i-499E4070;4;518
326400;i-9F58442A;2;539
326700;i-66854081;2;537
327000;i-5532400D;1;259
327600;i-75B13DBC;4;527
328200;i-AC2B43C5;2;537
328800;i-F2C63EAB;2;528
328800;i-60654172;1;279
328800;i-7E3B3ECA;2;5323
330300;i-4E7942DC;2;873
330300;i-15CD4676;2;535
330600;i-D7513F97;1;269
331800;i-09603C33;2;536
332100;i-05F64388;2;2180
332400;i-0C5F43FE;2;835
332400;i-F8794361;1;228
332700;i-852940CE;4;647
333900;i-6DD146E2;2;1171
334200;i-66783E6A;2;524
334800;i-CE0F4684;4;518
335700;i-C8C24242;2;509
335700;i-F49044E3;2;536
337500;i-9E76448D;2;504
337800;i-6D1941F5;2;530
339300;i-97EB4627;2;879
339300;i-3BF13FC7;4;5254
339600;i-663C4270;2;525
339900;i-33E942D9;4;493
341100;i-75244283;2;492
341400;i-2251439F;2;533
342900;i-32B24085;2;503
344700;i-582E3DC9;4;1532
344700;i-5F2B40A7;2;1032
346200;i-9DCF3FDC;4;1685
346200;i-398E430D;4;1517
346200;i-6D2C4252;4;1517
346200;i-CA783C6F;4;1517
346200;i-A63443B7;2;534
347100;i-9E0A3FCD;4;527
348300;i-C24C3CFA;2;529
348300;i-9B3840AA;4;64391
348300;i-CF0146DE;4;64391
348300;i-53C73BE7;4;64373
348300;i-B2634275;4;286
348300;i-DCA83F14;4;64373
348300;i-0AC546EE;4;64355
348300;i-68713E52;4;224
348300;i-C9C3431E;4;64365
348300;i-D73340A0;4;64365
348300;i-EC1B3FA3;4;64365
348300;i-47C34096;4;64354
348300;i-895A496B;4;64354
348300;i-B13C401A;4;64344
348300;i-CBD641BC;4;64354
348300;i-DA384380;4;64177
348300;i-18724229;4;64336
348300;i-44FF43E4;4;64336
348300;i-62AA45DE;4;64347
348300;i-A8F63F0D;4;64347
348300;i-CF8E4268;4;64336
348300;i-1FC2440E;4;64337
348300;i-5CC542E1;4;64337
348300;i-5F913B75;4;64344
348300;i-BA2E47DD;4;64337
348300;i-DD6A43B3;4;64326
348300;i-217D45FF;4;64337
348300;i-2601407B;4;64328
348300;i-3DEB4259;4;64328
348300;i-D2864119;4;64329
348300;i-1F13414E;4;64308
348300;i-E501422E;4;64326
348300;i-E7DB3FBA;4;64318
348300;i-60B63C59;4;64310
348300;i-6EB8417F;4;64310
348300;i-B521404F;4;2648
348300;i-03F342D4;4;64309
348300;i-8F974123;4;64291
348300;i-AA7840FB;4;64301
348300;i-AEFB400E;4;64309
348300;i-C6433D0B;4;64301
348300;i-D64245C2;4;1934
348300;i-E2514136;2;1185
349200;i-4B3E4209;4;500
350100;i-23DA4253;2;511
350100;i-08DB42F9;4;62533
350100;i-22834297;4;62533
350100;i-9A003C3E;4;62526
350100;i-EEE441C4;4;12030
350100;i-37CB48CF;4;62518
350100;i-83843D73;4;62518
350100;i-97904049;4;62514
350100;i-A9BE3E1E;4;62507
350100;i-4ABF3F2A;4;62505
350100;i-8FDD430E;4;62498
350100;i-0D7F4139;4;62476
350400;i-1CA042D4;2;507
351600;i-CB654044;2;531
352200;i-1E5440C7;2;507
353400;i-52D14048;2;1203
354000;i-BD133F32;2;508
354300;i-D67D426A;4;524
355500;i-EB464538;2;526
355800;i-21FF4217;2;498
356700;i-B763401B;4;472
357300;i-D65946CA;2;533
357600;i-57A24658;2;484
358800;i-674E4043;2;524
359400;i-EBF14507;2;906
360600;i-9DD03DC8;2;534
361200;i-968946F4;2;502
361500;i-056F47E1;4;517
361800;i-4D8246C2;4;50784
361800;i-D25541FF;4;50785
362400;i-76CF3DBC;2;527
363000;i-49963FBA;2;498
363600;i-91223FF4;4;496
364500;i-5E1E3D10;2;522
364800;i-AE0845FE;2;511
364800;i-080C4113;2;30787
366300;i-A03D3DC2;2;530
366300;i-001E4157;4;26990
366300;i-4C44420D;2;1177540
366300;i-F6103E5D;4;26985
366600;i-CFDB427C;2;495
366600;i-740E4013;1;279
366600;i-98E7438D;2;1094
366600;i-780B4057;1;251058
367800;i-43DE4150;2;533
368100;i-62A83FBA;1;15916
368400;i-92004229;2;498
368400;i-590C400F;1;197
368400;i-D2233FA5;2;1034
368700;i-FA134163;4;518
369600;i-EB62481C;2;528
370200;i-46894747;2;1054
370200;i-DAD33D0F;1;280
370200;i-0F0A414F;2;1034
370800;i-9F094031;4;497
371100;i-B4ED4272;4;41716
371400;i-E5444326;2;534
372000;i-C8E6400A;2;526
372000;i-2C3640AB;1;259
372000;i-FB363FDC;2;1034
373200;i-62E44187;1;344888
373200;i-A3DD4459;2;534
373500;i-513F411F;2;534
373800;i-5A00414C;1;279
373800;i-84004764;2;1034
374700;i-CAC341A8;2;138
375000;i-823644AD;2;535
375300;i-15344411;2;535
375600;i-1D0A4533;1;279
375600;i-5A6D42EA;2;1035
375900;i-A5D34638;4;520
376800;i-0684422B;4;34613
376800;i-1067431E;2;538
377400;i-24E54788;2;525
377400;i-C5CD4318;1;280
377400;i-B7CC44E9;2;1034
378000;i-975D475B;1;244487
378000;i-391A3FE2;4;507
378300;i-34BD436F;2;127
378600;i-5E55464F;2;477
379200;i-8FB243D9;2;528
379200;i-55573FB6;1;279
379200;i-43DB4000;2;1035
379200;i-8F084460;2;857
379500;i-9D933F15;1;385
380700;i-BF3F3D7E;2;531
380700;i-79F4447C;2;624
380700;i-43CD4002;4;529
381000;i-A7894842;2;526
381000;i-975B4132;1;248
381000;i-D01340FC;2;1094
381300;i-544343C3;2;510
381900;i-893F3FBE;2;3324
382200;i-0F36438D;2;528
382800;i-11C63F08;2;532
382800;i-5E5A43A2;1;197
382800;i-395F3EBC;2;1094
383100;i-92754608;1;282043
383100;i-BB083D7E;4;493
383400;i-AECC42B6;4;7874
383700;i-1D963FFE;1;238658
384300;i-F3E23E4E;2;504
384300;i-FFD14017;2;537
384600;i-D7714292;1;197
384600;i-C5CB4348;2;1094
385200;i-DD3A3CC4;2;10398
385200;i-29DE4270;2;354
385200;i-1941415C;4;498
385800;i-F95843E7;2;922
386400;i-50A1454E;2;498
386400;i-2C483BDD;1;279
386400;i-C842436D;2;1094
387000;i-01434199;1;97806
387600;i-0CEE4A10;2;526
388200;i-B73F4420;2;526
388200;i-76484ACB;1;250
388200;i-99E3441F;2;1034
389400;i-F72A3FF7;2;536
390000;i-10383F30;2;497
390000;i-7DDD39B6;1;187
390000;i-BBE83FD4;2;1154
390300;i-7B8F3FC9;4;530
391200;i-44B84357;2;527
391500;i-81024242;1;505
391500;i-26B341DC;4;513786
391500;i-70394518;4;513932
391500;i-96D84195;4;514184
391500;i-CECC3E47;4;514115
391500;i-DFC5411C;4;514074
391500;i-03DA42B1;4;514090
391500;i-074545E9;4;514400
391500;i-0A9441A3;4;514391
391500;i-918B3EA0;4;513978
391500;i-385E3C5C;4;513887
391500;i-7332416C;4;9441
391500;i-8DF14565;4;514363
391500;i-9FB044F8;4;514218
391500;i-BDA94152;4;513760
391500;i-5A3B43EB;4;513759
391500;i-5A81449C;4;514273
391500;i-927743E3;4;514118
391500;i-C0774246;4;513915
391500;i-4D0044D7;4;513762
391500;i-51903F09;4;514027
391500;i-B02D406B;4;514227
391500;i-E92C3EB2;4;513800
391500;i-EB024171;4;513971
391500;i-00694262;4;513741
391500;i-A73E40E1;4;357819
391500;i-AAAB41AE;4;514038
391500;i-DBD5430C;4;513815
391500;i-EC073E9B;4;513905
391500;i-F5544082;4;513771
391500;i-4EB641C3;4;514101
391500;i-55EF43A5;4;514111
391500;i-80B441C2;4;513964
391500;i-E0FA3C79;4;514047
391500;i-029B3FB6;4;513717
391500;i-0A863EB4;4;513907
391500;i-B611417E;4;514013
391500;i-BD764041;4;513817
391500;i-FF69421C;4;513835
391500;i-3B10427E;4;514211
391500;i-6BB73CA8;4;514294
391500;i-78D54435;4;514294
391500;i-8EB143F0;4;513781
391500;i-941C42C4;4;514230
391500;i-CA743E30;4;514348
391500;i-F9DA3F40;4;514286
391500;i-0A8643E2;4;514286
391500;i-41AE4059;4;514114
391500;i-4E544343;4;514132
391800;i-AF883F01;2;531
391800;i-A0A53F69;1;268
391800;i-E63F3EEE;2;1035
392100;i-C42F42E7;1;467
392100;i-68834412;2;366439
392400;i-3A444424;4;522
393300;i-F4F741DA;2;492
393600;i-D8F744CB;2;1130
393600;i-58EA42CA;1;258
393600;i-41F43F27;2;1214
394500;i-9AA43E54;1;1364
395100;i-FE04457E;2;506
395100;i-55BD45F1;2;536
395400;i-68A944BB;1;248
395400;i-A333404A;2;25124
395400;i-26DC4084;1;388
395700;i-C22F3F0E;2;721
396900;i-D076427A;2;493
396900;i-5B834373;2;539
397200;i-2664416C;1;248
397500;i-44B03F18;2;1439
397500;i-993A41E9;4;492
398100;i-E1D2457F;4;3988
398100;i-F8943EF8;4;4288
398400;i-4DE4083C;6;50037
398400;i-3BB406AD;6;50020
398700;i-857E4319;2;518
399000;i-E38142DA;2;536
399000;i-AA5443EB;2;202
399000;i-8FDC4038;1;279
399000;i-4E1A4387;2;549
399300;i-24523F86;2;2185
399600;i-D2734243;4;517
399600;i-131B417C;2;511
400500;i-F1374147;2;556
400800;i-BB5540AC;2;1088
400800;i-CD66458C;1;218
402300;i-44F33CB1;2;501
402300;i-D66C438F;4;1485
402300;i-0FE63ECC;4;503281
402300;i-AAA9403C;2;534
402600;i-1BBE4392;4;1434
402600;i-544B4195;1;227
403800;i-15FE42D7;4;1860
403800;i-CED140B1;4;1682
403800;i-D43945F1;4;1682
403800;i-D8143DEB;4;1682
404100;i-13C642E2;2;492
404100;i-492D4220;2;534
404400;i-6E5F3FAD;1;279
404700;i-22B545E7;4;599
405900;i-D9734809;2;476
406200;i-4AE245EB;2;528
406200;i-04F440FA;1;228
406800;i-3DF1469F;4;517
407700;i-691A46C5;2;482
408000;i-CF8B43EF;2;528
408000;i-3A4A425E;1;247
409500;i-1D60496A;2;540
409800;i-9AA4447E;2;1057
409800;i-A5C940C0;1;279
411300;i-8B9C451F;2;533
411600;i-ACF94886;2;524
411600;i-F82F434A;1;248
411900;i-501D4011;4;501
413100;i-0CAB4261;2;446
413400;i-5EC7440B;2;497
413400;i-34563E32;1;280
414000;i-391D4219;4;509
414900;i-6D0C4356;2;516
415200;i-0DE94508;2;810
415200;i-7A7C4840;1;299
415200;i-883C42E4;4;6641
415200;i-954A4651;4;6632
415200;i-23934365;4;6622
415200;i-68BF4032;4;6631
415200;i-80FC4775;4;6622
415200;i-B3EF419E;4;6631
415200;i-DB7D429B;4;6622
415200;i-E2AC4130;4;6622
415200;i-57B241DB;4;6623
415200;i-B14B3C32;4;6614
416700;i-FDD344B7;2;539
417000;i-960E4350;2;530
417000;i-467D3F41;4;2806
417000;i-5B1A42F3;4;2823
417000;i-4EA8431E;1;197
418500;i-092843C5;2;485
418800;i-D70A3FE8;2;525
418800;i-3D5140AF;1;228
419100;i-0C6F3FE4;4;501
420000;i-45374404;4;5596
420000;i-4B9B3E8C;4;5518
420000;i-60A53FC3;4;5468
420000;i-0EAC3B89;4;2942
420000;i-6E803CE7;4;5552
420000;i-87F041C3;4;5492
420000;i-C213400A;4;5518
420000;i-CB9F449F;4;5595
420000;i-146C41B6;4;5528
420000;i-1AFB421A;4;5468
420000;i-C89F4245;4;5563
420000;i-F6F143E3;4;5443
420300;i-781542A6;2;560
420300;i-B9E53EC1;2;56891
420600;i-FF1F4522;2;517
420900;i-3A9F3C84;2;64447
421200;i-9DE343D2;4;510
422100;i-98314048;2;466
422400;i-8C7A466D;2;527
423600;i-D2FC3C07;4;1228
423900;i-C766419E;2;485
424200;i-CFE44078;2;497
425400;i-10824014;2;438
425700;i-2D4D4295;4;67887
425700;i-62FE4329;4;67895
425700;i-80283F68;4;67895
425700;i-972B3D81;4;67895
425700;i-FAD14269;4;67895
425700;i-20ED4141;4;67887
425700;i-56384009;4;67887
425700;i-CD3E3F83;4;67887
425700;i-01F342AD;4;67877
425700;i-184A3F96;4;67877
425700;i-5F8542C4;4;67877
425700;i-B8134029;4;67877
426000;i-558B411F;2;876
426300;i-4BA840A1;2;183
426300;i-DCD24534;4;576
427200;i-24F64323;4;199
427200;i-42424420;2;446
429300;i-45AC40D3;2;439
431100;i-CF684693;2;410
431400;i-55583ECE;2;1141
432000;i-A8AB4427;2;240068
432600;i-E3123E64;2;375
433200;i-8BF63D5B;2;505
433500;i-92484379;4;573
433800;i-5AF14008;4;996
434400;i-8CF24723;2;431
435000;i-153B459A;2;860
435000;i-55A34199;4;3669
435600;i-2C1442C8;4;494
436500;i-D7DD42D4;2;454
436800;i-3FEE4038;2;537
438000;i-4A354466;2;436
438600;i-4A4E4319;2;509
438900;i-A4484142;4;1425
440100;i-2F253E79;2;414
440400;i-097C3B89;2;794
440700;i-2AC3428A;4;571
441600;i-2DCF4327;4;3341
441600;i-C1844447;2;511
441900;i-1293422B;4;3157
441900;i-5FAD3F1A;4;3157
441900;i-94194446;4;3157
442200;i-5201415B;2;534
442800;i-67B243F4;4;605
443400;i-C5BC4467;2;464
444000;i-D8574244;2;1154
445200;i-8F813EAD;2;473
445800;i-763740E3;2;509
447000;i-329E44CA;2;373
447600;i-A5174566;2;502
447900;i-E83442D0;4;635
448800;i-A3E34841;2;444
449400;i-C121478F;2;1174
450000;i-B2E547BD;4;494
450600;i-614F4470;2;438
451200;i-F2F242A2;2;507
452400;i-FBA6407A;2;430
453000;i-085F3EFE;2;501
453000;i-C3C83FED;2;1214
453000;i-C97D40BA;1;278
454200;i-E50B487F;2;383
454800;i-23923F70;2;988
454800;i-76E14410;1;280
454800;i-29C44327;2;1094
455100;i-AA543CFD;4;562
456000;i-D90D4247;2;437
456600;i-197540B5;2;508
456600;i-8CD942C4;1;238
456600;i-DE844077;2;1034
457200;i-CB2745F9;4;492
457800;i-F21D4301;2;5007
457800;i-41A43BE9;2;444
458100;i-A7024431;4;1333
458400;i-624045BB;2;501
458400;i-204441C1;1;249
458400;i-A088462F;2;1035
459900;i-DD004667;2;403
460200;i-973C3E6D;2;527
460200;i-E73D3FDB;1;228
460200;i-136C43F7;2;1094
461400;i-48B50909;1;1339
461700;i-135041C9;2;411
462000;i-7D7342BF;2;522
462000;i-F17742CE;1;280
462000;i-C6C24037;2;1154
462300;i-0DFC4A1B;4;599
463200;i-B5E740CC;2;471
463800;i-0F453FDD;2;774
463800;i-FAE13F84;1;228
463800;i-5D4D48A6;2;1034
463800;i-428C075D;1;17677
463800;i-47D107DD;1;17677
463800;i-4A6308A7;1;17666
464400;i-86A03E93;4;1279
464400;i-F86F3FAA;4;490
465300;i-51F54187;2;443
465300;i-205345A5;2;1153
465600;i-D64944B1;1;238
465600;i-EF7E446B;2;1035
466200;i-42FE41CF;4;548
466800;i-76004382;2;445
467400;i-F8544385;2;508
467400;i-20C146AB;1;228
467400;i-4FE241DF;2;1094
468300;i-8A4C42B1;4;482
468600;i-BBB04260;2;438
469200;i-46454294;2;523
469200;i-8F514594;1;227
469200;i-B2643976;2;1034
469500;i-84784373;4;1218
470700;i-2BA5401E;2;431
471000;i-E3704541;2;499
471000;i-476C450A;1;248
471000;i-137F414A;2;1094
471600;i-D4BA47E7;4;490
472200;i-E523427C;2;508
472800;i-BBD54305;2;535
472800;i-98004334;1;248
472800;i-5D4D4334;2;1035
473100;i-B2EA3E6D;4;587
474000;i-AA064234;2;465
474600;i-0B9E41CA;2;538
474600;i-94733F9A;1;227
474600;i-9EE44104;2;1094
476100;i-4E924029;2;430
476400;i-38EF41BD;2;503
476400;i-46E543B4;1;227
476400;i-2E1443DF;2;1154
476700;i-37CA4BFE;4;652
477300;i-2EC13D7D;2;6880
477900;i-75E63EA0;2;380
477900;i-D3134469;2;533
478200;i-7FCB42EC;1;237
478200;i-E84A4368;2;1155
478800;i-0AF0403B;4;516
479700;i-83A63EA9;2;456
480000;i-B6534573;2;527
480000;i-66964033;1;238
480000;i-20473C7B;2;1154
481200;i-EEE94293;2;372
481500;i-4A9A08B1;1;5993
481500;i-3AFD06E4;1;5943
481500;i-457107EB;1;5929
481500;i-48B70831;1;5925
481800;i-3D4F076C;1;5915
481800;i-473008BF;1;5918
481800;i-4AF7082A;1;5915
481800;i-522C0905;1;5916
481800;i-544F42F8;2;532
481800;i-4462077C;1;5908
481800;i-49EE07FA;1;5908
481800;i-F4664425;1;228
481800;i-58E344F2;2;25127
483000;i-8EE53BFC;2;436
483600;i-5DED4144;2;533
483600;i-FBC2444D;1;279
483900;i-D93C45D6;4;771
484500;i-EA813F2E;4;3303
484800;i-3B5A4317;2;84
484800;i-59EF4167;2;343
485400;i-38384002;2;525
485400;i-6D7C426B;1;279
485400;i-D08740F7;4;232567
486000;i-8B8942C2;4;519
486000;i-1B3C434A;4;569
486600;i-13C8458B;2;514
487200;i-1DA04451;2;528
487200;i-085B445D;1;238
488100;i-82CF49FC;4;1433
488400;i-C70F3E63;2;446
489000;i-691E4410;2;458
489000;i-6859405F;1;237
490200;i-39684298;2;222
490200;i-D2614064;2;445
490500;i-1E53410E;2;191
490500;i-252D3E13;2;181
490500;i-299A4265;2;191
490500;i-31753BAE;2;180
490500;i-40E44604;2;191
490500;i-456943A3;2;191
490500;i-4F4C447B;2;191
490500;i-5B513B81;2;190
490500;i-5D093E99;2;191
490500;i-60D73F15;2;191
490500;i-66BB4313;2;191
490500;i-68A341B0;2;191
490500;i-80D34374;2;191
490500;i-80D741C9;2;191
490500;i-81A63ED3;2;191
490500;i-87353949;2;191
490500;i-8A5545DE;2;191
490500;i-934543C0;2;191
490500;i-A1DA3FBC;2;191
490500;i-A9413DD1;2;191
490500;i-B5464A6F;2;191
490500;i-B7373C60;2;198
490500;i-BE613FCB;2;198
490500;i-CA9C47B9;2;191
490500;i-CCB64023;2;191
490500;i-CF923C71;2;191
490500;i-DB0E3DA9;2;191
490500;i-DC584354;2;191
490500;i-DE124069;2;191
490500;i-48193C36;2;183
490500;i-874D3E1B;2;190
490500;i-AC6B4286;2;183
490500;i-E05E426F;2;190
490500;i-F49F43FA;2;183
490500;i-12C3404A;2;182
490500;i-19833FF2;2;182
490500;i-3EDA40E9;2;171
490500;i-4DFF40E0;2;182
490500;i-544A3F23;2;182
490500;i-5CB14193;2;182
490500;i-751043DE;2;182
490500;i-86DF3FEA;2;182
490500;i-994F4131;2;182
490500;i-DC3B43FF;2;182
490500;i-DCE14512;2;182
490500;i-DD434461;2;182
490500;i-DE044274;2;190
490500;i-E8F7420C;2;189
490500;i-1AE23EAF;2;157
490500;i-F5EA412F;2;157
490800;i-BC203FD3;2;537
490800;i-07DA42BD;1;280
491100;i-B8CF3CC1;4;602
491400;i-F0D441F3;2;4236
492000;i-4FB641E6;2;469
492300;i-864246FB;2;535
492600;i-B75844A8;1;196
493200;i-16BF4141;4;520
493500;i-834F4585;4;7845
494100;i-E1CE401A;2;545
494400;i-8C1D4032;2;527
494400;i-C1EC45DC;1;239
495300;i-49FB43C4;2;311
495300;i-0B4C4114;2;301
495300;i-2357444E;2;301
495300;i-A3B640DB;2;301
495300;i-F2A93EFD;2;301
495600;i-3EA642C5;4;155
495600;i-6DAF4046;2;375
495900;i-E10444EB;2;109551
496200;i-03AE4091;2;862
496200;i-704A40C9;1;279
496500;i-2FD241CC;4;64
496500;i-2CCA41BC;2;202
496800;i-5A073F04;6;6902
496800;i-A0F7449C;6;6902
496800;i-B06843E9;2;220
497400;i-EC294391;2;228
497700;i-C7914713;2;439
497700;i-452C40DF;2;533
498000;i-A4E741AE;1;299
498300;i-4E454007;4;533
499500;i-921645A2;2;466
499800;i-7DAE418C;2;527
499800;i-A9A14048;2;203
499800;i-153C45ED;1;197
500400;i-FA7444E6;4;512
501000;i-B05B3A4D;2;569
501300;i-0ECF4246;2;531
501600;i-8EFA45F0;1;259
501600;i-A1E93F91;4;2100930
501600;i-855F43E0;4;2100862
501600;i-C9EB4423;4;547796
501600;i-47F83DE9;4;589783
501600;i-DC454100;4;589765
501600;i-515643EA;4;2100638
501600;i-BEBC3CBF;4;549000
501600;i-3EE541B9;4;2100620
501600;i-43CC3E4A;4;548936
501600;i-E57D419F;4;2100472
501600;i-47554567;4;2100967
501600;i-802C402B;4;9263
501600;i-3E1907C6;1;6008
501600;i-0B3C4343;4;2100500
501600;i-CACE3EEA;4;2100658
501600;i-EAE34586;4;548907
501600;i-8CF0447C;4;589663
501600;i-FD9841E3;4;547752
501600;i-0E433FE1;4;2100975
501600;i-1A393FD0;4;2100481
501600;i-64D13E27;4;8771
501600;i-A32E4561;4;589700
501600;i-EF5F3C4A;4;2100866
501600;i-5ECD4410;4;2101028
501600;i-CAE33E12;4;2100488
501600;i-FD4C418D;4;2100645
501600;i-E97F3E39;4;2100737
501600;i-FE72456F;4;589671
501900;i-CB113E44;4;2100886
501900;i-12DE3F71;4;2100854
501900;i-D46B45C7;4;548869
501900;i-ED214136;4;2100690
501900;i-9C124704;4;2100600
501900;i-4FC3433B;4;548861
501900;i-F7ED426B;4;550041
501900;i-0D224317;4;2100468
501900;i-9ED33B07;4;547637
501900;i-10F43EC0;4;2100720
501900;i-E1D14255;4;2100574
501900;i-657C3C7E;4;532366
501900;i-0D934328;4;2100467
502800;i-6B8D4583;2;442
503400;i-F4CF41D0;1;228
504600;i-9FA44197;2;449
505200;i-BBCA4213;1;280
505500;i-844340C1;4;544
506400;i-08F24A80;2;486
507600;i-9C9F4609;4;904
508200;i-CF0F3FE1;2;373
508500;i-203241B2;2;2486460
508800;i-6A274819;2;460
510000;i-46DC418C;4;684026
510000;i-CD894212;4;2092560
510000;i-F9E23F65;2;374
510600;i-8FD844DA;2;455
511800;i-CAC8445B;4;527
511800;i-C2473CC2;2;472
512400;i-3CFA4412;2;454
512700;i-18DD3EA7;4;536855
512700;i-DE9E43A3;4;2090181
512700;i-AA713D31;4;561
513600;i-70223E9D;2;327
513600;i-752C440F;2;327
513600;i-18103F46;2;317
513600;i-BDF74702;2;317
513600;i-DD21437D;2;317
513600;i-ED7143D4;2;317
513600;i-4493402C;2;317
513600;i-5923462E;2;226
513600;i-09664286;2;217
513600;i-AD1F428A;2;218
513600;i-AD8F4163;2;217
513600;i-242D430F;2;208
513600;i-774E4220;2;208
513600;i-F3834618;2;200
513600;i-220B4054;2;178
513600;i-478C42DB;2;190
513600;i-6EA23F63;2;189
513600;i-8FE2463E;2;190
513600;i-B462454D;2;189
513600;i-C4A43C04;2;198
513600;i-420E40E3;2;189
513600;i-99204689;2;182
513600;i-C74940F5;2;182
513600;i-D8E63DC3;2;182
513600;i-C5004077;2;181
513900;i-C16E3C1D;2;478
514200;i-003E3E6F;2;564
514800;i-332244A0;4;551
515400;i-4DE642B3;2;522
516000;i-6C4741B2;2;473
517200;i-8E5A46F6;2;539
517800;i-D8013E4C;2;473
517800;i-DA973E17;4;519
519300;i-1C643F8F;2;449
519600;i-A9E2415F;2;446
519900;i-C8224146;4;630
520200;i-F19D4534;4;589
520800;i-39DE47BF;2;458
521400;i-FBBE3FE0;2;502
522000;i-C6253F7E;4;580
522000;i-2C243D90;4;534
522600;i-3A304017;2;378
522900;i-66504192;4;559
523200;i-913741E5;2;491
524400;i-CC454548;2;467
525000;i-A2353F45;2;471
526200;i-502C4300;2;457
526800;i-43CB420C;2;443
527100;i-521E4609;4;605
528000;i-8D8243F7;2;367
528600;i-2E074473;2;462
529200;i-7A71422D;4;555
529800;i-EC40429F;2;458
530400;i-4A8F425B;2;392
531600;i-617341A9;2;440
532200;i-96844442;2;507
533700;i-A1A8450B;2;340
534000;i-708C404B;2;471
534000;i-AA313F49;4;950
534300;i-D1A64396;4;492
534600;i-82F83E95;2;12887
535200;i-6D9943B1;2;448
535800;i-C56643EE;2;499
536400;i-57D8434A;4;536
537000;i-460940A8;4;3768
537300;i-30404447;2;433
537600;i-68C43EFC;2;407
537600;i-1C1543A8;4;958
538800;i-265B44B0;2;569
539100;i-6599491C;4;952
539400;i-A3774321;2;489
539700;i-1CC841D7;2;644
539700;i-AF9F45C7;2;884
540600;i-199E4285;2;448
540900;i-FBA44215;4;1001
541200;i-B873411E;2;491
541200;i-54A9430E;1;280
541200;i-22DE428C;2;974
541200;i-65073F4F;2;1004
541500;i-73614040;2;1154
541500;i-EAA14937;4;503
542400;i-AD9D43EA;2;444
543000;i-DC2E4122;4;940
543000;i-C7B03D4B;2;395
543000;i-5A694712;1;238
543000;i-93E93E77;2;974
543000;i-E8833E6E;2;984
543300;i-E68A3F4D;2;1003
543300;i-37C54372;2;924
543300;i-9D964784;2;1144
543600;i-EC6140F8;4;620
544200;i-D3464244;2;440
544800;i-5A17427A;2;420
544800;i-19624528;1;229
544800;i-142F42F3;2;974
544800;i-EC853B0A;2;1004
545100;i-9E30414E;2;914
545100;i-7C7343AA;2;1124
546000;i-C2334335;2;458
546600;i-9FD53FD5;2;471
546600;i-1DFF439D;1;239
546600;i-8E434563;2;913
546600;i-6FB3400D;2;954
546900;i-D5EF41D5;2;1104
547800;i-37584434;4;20167
547800;i-82F2457B;2;524
548400;i-2F03463B;2;480
548400;i-6D2F40D1;1;269
548400;i-3DA53F9E;2;1034
548700;i-145B4236;4;527
549600;i-C9C141A3;2;517
550200;i-042D426F;2;383
550200;i-12EE3F05;1;237
550200;i-F5DA4243;2;974
550200;i-F77B4025;2;1064
550800;i-66244288;4;598
551400;i-A91F449E;2;512
552000;i-D5693ED7;2;392
552000;i-CC8B43D4;1;228
552000;i-C3D6421A;2;1034
553200;i-E0323FC9;2;438
553800;i-E9DD446A;2;479
553800;i-07A14323;2;1931
553800;i-AA7C4221;2;1931
553800;i-DF384933;2;1931
553800;i-519044B2;2;1877
553800;i-93AD4263;2;1877
553800;i-916B48B6;2;1034
553800;i-B85F4369;1;227
555300;i-7E703E4C;2;372
555600;i-EC0E3E98;2;381
555600;i-A9EB42FB;1;238
555600;i-55EF44FB;2;914
555600;i-FC0F3F90;2;1064
555900;i-AFC24420;4;544
556200;i-F46442D3;4;25619
556200;i-498643C8;2;15695
556200;i-8F40403E;2;15695
556200;i-9F633F46;2;15683
556200;i-CBD443D9;2;15683
556200;i-592642F2;2;15621
556800;i-ECB64355;2;443
557400;i-80293EC5;2;500
557400;i-D0CA4282;1;237
557400;i-042D3DD9;2;1154
558000;i-7A663CE4;2;651
558000;i-09043DA6;2;643
558000;i-83864563;2;643
558000;i-8A9F430B;2;643
558000;i-E7A64076;2;643
558000;i-AC3844BA;4;617
558300;i-946D43FA;2;1128293
558300;i-C9CB3EE3;4;1135173
558300;i-C2764222;4;1179
558900;i-B94441A9;2;439
559200;i-FE5C42BD;2;478
559200;i-96C643D9;1;228
559200;i-5A844428;2;1154
559500;i-86D04302;2;3191
559500;i-EDC94205;2;3180
559500;i-99F74423;2;3133
559500;i-86FC3E02;2;3125
559800;i-244F4412;4;1133649
560400;i-13B03CB4;2;568
560700;i-0C6D43A0;6;9351
561000;i-5018413C;2;470
561000;i-63963E42;1;196
561000;i-81C44450;2;974
561000;i-A4D53DB0;2;944
561300;i-61CE432F;2;984
561300;i-02E33F43;2;1014
561300;i-C9884086;2;934
561300;i-CCDF44D1;2;974
561600;i-FA3F3E8F;2;1124
562500;i-EF193E68;2;614
562800;i-997443E0;2;373
562800;i-D8EF439F;1;218
562800;i-442443D0;2;1094
563100;i-64253E12;2;568
563100;i-EC6841B6;2;568
563100;i-8AF6448A;2;513
563100;i-CC3B3B0B;2;513
563100;i-EAC64275;4;598
563400;i-E946414B;4;39681
563700;i-0357430A;2;897
563700;i-16304344;2;889
563700;i-EDDD4318;2;888
563700;i-EEC83FD7;2;838
564300;i-409643E1;2;529
564600;i-56393EF8;2;498
564600;i-A53942A5;1;279
564600;i-79E24059;2;974
564600;i-DB643E0B;2;1134
564900;i-1ECC4358;2;5542
564900;i-BFC54268;2;5494
564900;i-6E784387;2;2067
564900;i-CAAC4548;2;4169
565200;i-8C0F3EE3;4;599
566100;i-DC213EB1;2;548
566400;i-1D8D4225;2;425
566400;i-64943E8C;1;207
566400;i-0B8C4243;2;2774
567000;i-92E744CD;2;3263
567600;i-26294277;2;449
568200;i-D8E93E8D;2;386
568200;i-33A73C2B;4;14417
568200;i-E2D53DE4;1;217
568200;i-9DE23D72;4;28275
569100;i-2D6E4078;2;1209
569400;i-A2693DE3;6;95481
569400;i-04A5419F;2;443
569700;i-1B5F437B;2;235
569700;i-E1FA40EB;2;571
570000;i-DFF83F9F;2;486
570000;i-F8C94593;1;260
570000;i-42D640E4;2;23325
570000;i-F94D3FF8;6;476
570300;i-565540F2;2;202
570300;i-660C4242;4;626
570600;i-9831400F;2;732
570600;i-FE2E4333;2;723
570600;i-0DD94172;2;222
570600;i-7ACB4321;2;663
570600;i-6659436D;6;5332
570600;i-B665427D;6;5343
570900;i-F806444B;2;307
570900;i-B21C3F28;4;3705
571500;i-EECD40CE;2;518
571800;i-131845BF;2;470
571800;i-74C940BD;1;207
572400;i-CB6146E5;4;727
572700;i-BA7A4396;4;3645
573300;i-A02E41C7;2;472
573600;i-3C4C446E;2;497
573600;i-786544F8;1;207
574800;i-BA33426A;4;3102
574800;i-0BD64468;2;43558
574800;i-61E63DB6;2;450
575400;i-5BC94036;2;1077
575400;i-C33441D8;2;434
575400;i-FDFB425F;2;1018
575400;i-13DD3E0B;2;326
575400;i-96BA3F30;2;1007
575400;i-28BD4735;1;208
575700;i-3B103F49;2;623
576000;i-8AD042C2;6;3454
576000;i-623542C1;2;336
576000;i-8D624175;2;255
576300;i-AD173B9D;6;2845
576300;i-DFF83DE5;4;1396
576900;i-42C743BD;2;425
577200;i-DC334054;2;425
577200;i-8FD43FDB;1;176
577500;i-A20D4670;4;542
577800;i-864C414A;4;1835
577800;i-2F4B3EBA;4;1666
577800;i-7DA33F4D;4;1666
577800;i-BBA9451F;4;1666
578700;i-D9DC4671;2;418
579000;i-58E54718;2;472
579000;i-C8F844DC;1;217
579000;i-44EB418B;6;590874
579600;i-2B7E41C5;4;1209
580200;i-A2353F62;2;447
580800;i-2F2142B1;2;547
580800;i-50EF4435;1;176
582300;i-D8CC3DC3;2;549
582600;i-E509447A;2;443
582600;i-5E173DDC;1;258
583800;i-751646D7;2;487
584400;i-DF8F41DB;2;381
584400;i-55E54448;1;177
584700;i-29104439;1;727
584700;i-1F17468D;4;498
585900;i-38864709;2;560
586200;i-909E3F7F;2;390
586200;i-D2813B63;1;176
586800;i-69244070;4;685
587700;i-1FFC3E87;2;476
587700;i-F6443DDB;2;608
588000;i-CDFC4667;1;218
589500;i-505B3F72;2;430
589800;i-E285417B;2;353
589800;i-CC6F4317;1;176
591300;i-E2FD41C3;2;434
591600;i-6FB742AB;2;488
591600;i-19FB4702;1;259
591900;i-E31C461B;4;498
593100;i-6D3E3FAE;2;570
593400;i-D070473A;2;426
593400;i-E855450E;2;6940
594000;i-01D54187;4;788
594900;i-0BFE3FA2;2;432
595200;i-3AD64322;2;548
596100;i-40F94463;4;42937
596100;i-FBFF450D;4;25765
596400;i-2D1B413A;2;450
597000;i-D1474220;2;494
597900;i-80194097;6;729
597900;i-9F8B41DD;6;729
597900;i-B8C64132;6;729
597900;i-F8383C8C;6;718
597900;i-AF674032;6;718
598200;i-928943A5;2;522
598800;i-CBF04492;2;537
599100;i-062B4513;6;2341207
599100;i-0D4542B1;6;2341208
599100;i-2D0B3F68;6;2341208
599100;i-4A904310;6;2341208
599100;i-7E6C45B2;6;2341208
599100;i-7F9244A8;6;2341208
599100;i-98C54475;6;2341208
599100;i-9E2C43DB;6;2341208
599100;i-90223C30;6;2341199
599100;i-A23F4120;6;2341191
599100;i-F9AD42A5;4;586
600000;i-9B7042B8;2;452
600000;i-716D43F1;2;389
600300;i-4A243F0D;2;459
600300;i-10484355;2;174
600600;i-8D044422;2;485
601200;i-A6AE4587;4;592
601800;i-2FD64410;2;452
602400;i-8CD1428D;2;483
603900;i-C07E3A3A;2;431
603900;i-3AA946E9;6;1293
603900;i-BD0B4241;6;1300
603900;i-08CF3FE0;6;1292
603900;i-0DAF4322;6;1292
603900;i-0F76420F;6;1292
603900;i-8A7F39FC;6;1300
603900;i-8BB040FE;6;1292
603900;i-35F2418C;6;1284
603900;i-05074715;6;1265
604200;i-E0113ECC;6;1254
604200;i-1C5842F1;2;489